How to use this research compendium • comsldpsy
…
Explore the analysis pipeline and results

Executing get_plan() returns the underlying drake plan used to run the analysis. The returned data frame lists all intermediate results (targets), the commands executed to create them, and the dependencies between them.

plan <- get_plan()
plan
#> # A tibble: 53 x 2
#>    target                    command                                      
#>    <chr>                     <chr>                                        
#>  1 data_raw                  "readRDS(file_in(\"analysis/data/data_orig.r…
#>  2 data_transformed          transform_data(data_raw)                     
#>  3 data_filtered             filter_data(data_transformed, get_filter_con…
#>  4 fisher_dsm5_cutoff_35_01… "fisher_test(x = \"dsm5_cutoff_35_01\", y = …
#>  5 fisher_dsm5_cutoff_35_01… "fisher_test(x = \"dsm5_cutoff_35_01\", y = …
#>  6 fisher_dsm5_cutoff_35_01… "fisher_test(x = \"dsm5_cutoff_35_01\", y = …
#>  7 fisher_dsm5_cutoff_35_01… "fisher_test(x = \"dsm5_cutoff_35_01\", y = …
#>  8 fisher_dsm5_cutoff_35_ma… "fisher_test(x = \"dsm5_cutoff_35_math\", y …
#>  9 fisher_dsm5_cutoff_35_ma… "fisher_test(x = \"dsm5_cutoff_35_math\", y …
#> 10 fisher_dsm5_cutoff_35_ma… "fisher_test(x = \"dsm5_cutoff_35_math\", y …
#> # ... with 43 more rows

The drake package provides several ways to visualize the analysis pipeline, e.g.

config <- drake_config(plan)
vis_drake_graph(config)

Furthermore, drake provides functions for viewing individual targets (drake::readd()) or load them into the current environment (drake::loadd()).

For example, to view the cleaned data set, use:

readd(data_filtered)
#> # A tibble: 3,014 x 55
#>    gender grade   age land  analyze cft_iq_own_kl cft_impl cody_t_own
#>    <fct>  <fct> <int> <fct>   <dbl>         <int> <fct>         <int>
#>  1 female 4. K…   122 Hess…       1           115 no               59
#>  2 male   3. K…   108 Baye…       1            99 no               41
#>  3 female 4. K…   121 Baye…       1           107 no               54
#>  4 female 4. K…   121 Hess…       1            77 no               46
#>  5 male   3. K…   106 Baye…       1            99 no               49
#>  6 female 3. K…   111 Baye…       1            96 no               44
#>  7 male   3. K…   111 Baye…       1            99 no               48
#>  8 female 4. K…   122 Baye…       1           107 no               58
#>  9 female 4. K…   126 Hess…       1            95 no               40
#> 10 male   4. K…   121 Baye…       1            86 no               44
#> # ... with 3,004 more rows, and 47 more variables: cody_z_own <dbl>,
#> #   cody_impl <fct>, wllp_t_own <int>, wllp_z_own <dbl>, wllp_impl <fct>,
#> #   childs_complete <int>, anamn_1 <fct>, anamn_24 <fct>,
#> #   sca_e_z_own <dbl>, des_z_own <dbl>, adhs_z_own <dbl>, ssv_z_own <dbl>,
#> #   fbbssv_complete <int>, anamn_12_c___15 <fct>, anamn_23_icd___44 <fct>,
#> #   anamn_23_icd___70 <fct>, anamn_23_icd___2 <fct>,
#> #   anamn_23_icd___3 <fct>, anamn_23_icd___4 <fct>,
#> #   anamn_23_icd___5 <fct>, anamn_23_icd___54 <fct>,
#> #   anamn_23_icd___55 <fct>, anamn_23_icd___9 <fct>,
…
